<?xml version="1.0" encoding="UTF-8" standalone="no"?>
<svg
   xmlns:dc="http://purl.org/dc/elements/1.1/"
   xmlns:cc="http://creativecommons.org/ns#"
   xmlns:rdf="http://www.w3.org/1999/02/22-rdf-syntax-ns#"
   xmlns:svg="http://www.w3.org/2000/svg"
   xmlns="http://www.w3.org/2000/svg"
   xmlns:sodipodi="http://sodipodi.sourceforge.net/DTD/sodipodi-0.dtd"
   xmlns:inkscape="http://www.inkscape.org/namespaces/inkscape"
   width="24"
   height="24"
   viewBox="0 0 24 24"
   version="1.1"
   id="svg12"
   sodipodi:docname="guard_seizure.svg"
   inkscape:version="0.92.4 (5da689c313, 2019-01-14)">
  <metadata
     id="metadata18">
    <rdf:RDF>
      <cc:Work
         rdf:about="">
        <dc:format>image/svg+xml</dc:format>
        <dc:type
           rdf:resource="http://purl.org/dc/dcmitype/StillImage" />
      </cc:Work>
    </rdf:RDF>
  </metadata>
  <defs
     id="defs16" />
  <sodipodi:namedview
     pagecolor="#ffffff"
     bordercolor="#666666"
     borderopacity="1"
     objecttolerance="10"
     gridtolerance="10"
     guidetolerance="10"
     inkscape:pageopacity="0"
     inkscape:pageshadow="2"
     inkscape:window-width="1920"
     inkscape:window-height="980"
     id="namedview14"
     showgrid="false"
     inkscape:zoom="19.666667"
     inkscape:cx="11.47923"
     inkscape:cy="8.1783678"
     inkscape:window-x="0"
     inkscape:window-y="27"
     inkscape:window-maximized="1"
     inkscape:current-layer="svg12" />
  <path
     d="m 5.4504577,19.309244 c -0.7754517,0 -1.40625,0.6308 -1.40625,1.40625 0,0.77545 0.6307983,1.40625 1.40625,1.40625 0.7754517,0 1.4062501,-0.6308 1.4062501,-1.40625 0,-0.77545 -0.6307984,-1.40625 -1.4062501,-1.40625 z m 0,1.875 c -0.2585449,0 -0.46875,-0.21021 -0.46875,-0.46875 0,-0.25855 0.2102051,-0.46875 0.46875,-0.46875 0.2585449,0 0.46875,0.2102 0.46875,0.46875 0,0.25854 -0.2102051,0.46875 -0.46875,0.46875 z m 0,0"
     id="path2"
     inkscape:connector-curvature="0"
     style="stroke-width:0.046875" />
  <path
     d="m 22.606707,19.309244 h -0.75 V 9.1842441 c 0,-0.25891 -0.209839,-0.46875 -0.46875,-0.46875 h -2.34375 V 2.3404944 c 0,-0.25891 -0.209839,-0.46875 -0.46875,-0.46875 -1.974976,0 -7.541931,0 -9.3749996,0 -0.258911,0 -0.46875,0.20984 -0.46875,0.46875 V 19.309244 h -0.316223 c -0.32428,-0.6861 -0.8724976,-1.23431 -1.5587766,-1.55878 V 1.4029944 c 0,-0.77545 -0.6307984,-1.40625 -1.4062501,-1.40625 h -4.03125 c -0.77545169,0 -1.40624999,0.6308 -1.40624999,1.40625 0,0.77545 0.6307983,1.40625 1.40624999,1.40625 h 2.625 V 17.750464 c -1.1337891,0.53833 -1.875,1.69043 -1.875,2.96503 0,1.80927 1.4719849,3.28125 3.28125,3.28125 1.2745971,0 2.4266967,-0.74121 2.9650267,-1.875 H 22.606707 c 0.775452,0 1.40625,-0.6308 1.40625,-1.40625 0,-0.77545 -0.630798,-1.40625 -1.40625,-1.40625 z m -1.6875,0 H 9.6692074 V 9.6529941 h 3.2812496 v 4.9687499 c 0,0.17761 0.100342,0.33984 0.259094,0.41931 0.158753,0.0795 0.348816,0.0623 0.490906,-0.0443 l 1.59375,-1.19532 1.59375,1.19531 c 0.142273,0.10675 0.332336,0.1236 0.490906,0.0443 0.158752,-0.0795 0.259094,-0.2417 0.259094,-0.41931 V 9.6529841 h 3.28125 z m -7.03125,-9.6562499 h 2.8125 v 4.0312499 l -1.125,-0.84375 c -0.08331,-0.0624 -0.182373,-0.0937 -0.28125,-0.0937 -0.09888,0 -0.197937,0.0313 -0.28125,0.0937 l -1.125,0.84375 z m -0.9375,-6.8437497 h 1.875 v 2.68652 l -0.67749,-0.45153 c -0.07874,-0.0526 -0.169373,-0.0787 -0.26001,-0.0787 -0.09064,0 -0.181274,0.0262 -0.26001,0.0787 l -0.67749,0.45153 z m -0.9375,0 v 3.5625 c 0,0.17285 0.09521,0.3316 0.247559,0.41327 0.152526,0.0817 0.337463,0.0725 0.481201,-0.0233 l 1.14624,-0.76409 1.14624,0.76409 c 0.143921,0.0959 0.329041,0.10474 0.481201,0.0233 0.152344,-0.0815 0.247559,-0.24042 0.247559,-0.41327 v -3.5625 h 2.34375 v 5.9062497 c -2.58783,0 -5.882263,0 -8.4374996,0 V 2.8092444 Z m -10.5937493,-0.9375 c -0.2585449,0 -0.46874999,-0.21021 -0.46874999,-0.46875 0,-0.25854 0.21020509,-0.46875 0.46874999,-0.46875 h 4.03125 c 0.2585449,0 0.46875,0.21021 0.46875,0.46875 V 17.468114 c -0.154541,-0.0221 -0.3109131,-0.0339 -0.46875,-0.0339 -0.1578369,0 -0.314209,0.0117 -0.46875,0.0339 V 2.3404944 c 0,-0.25891 -0.2098388,-0.46875 -0.46875,-0.46875 z m 4.03125,21.1874996 c -1.2923584,0 -2.34375,-1.05139 -2.34375,-2.34375 0,-1.27844 1.0341797,-2.34375 2.34375,-2.34375 1.3092041,0 2.3437497,1.06641 2.3437497,2.34375 0,1.30957 -1.0653076,2.34375 -2.3437497,2.34375 z m 17.1562493,-1.875 H 8.6978324 c 0.02216,-0.15454 0.03387,-0.31091 0.03387,-0.46875 0,-0.15784 -0.0119,-0.31421 -0.03387,-0.46875 H 22.606707 c 0.258545,0 0.46875,0.2102 0.46875,0.46875 0,0.25854 -0.210205,0.46875 -0.46875,0.46875 z m 0,0"
     id="path4"
     inkscape:connector-curvature="0"
     style="stroke-width:0.046875" />
  <path
     d="m 19.512957,18.371744 c 0.258911,0 0.46875,-0.20984 0.46875,-0.46875 v -0.9375 c 0,-0.25891 -0.209839,-0.46875 -0.46875,-0.46875 -0.258911,0 -0.46875,0.20984 -0.46875,0.46875 v 0.9375 c 0,0.25891 0.209839,0.46875 0.46875,0.46875 z m 0,0"
     id="path6"
     inkscape:connector-curvature="0"
     style="stroke-width:0.046875" />
  <path
     d="m 19.512957,14.621744 c 0.258728,0 0.46875,0.21002 0.46875,0.46875 0,0.25873 -0.210022,0.46875 -0.46875,0.46875 -0.258728,0 -0.46875,-0.21002 -0.46875,-0.46875 0,-0.25873 0.210022,-0.46875 0.46875,-0.46875 z m 0,0"
     id="path8"
     inkscape:connector-curvature="0"
     style="stroke-width:0.046875" />
  <path
     d="m 17.637957,16.496744 c -0.258911,0 -0.46875,0.20984 -0.46875,0.46875 v 0.9375 c 0,0.25891 0.209839,0.46875 0.46875,0.46875 0.258911,0 0.46875,-0.20984 0.46875,-0.46875 v -0.9375 c 0,-0.25891 -0.209839,-0.46875 -0.46875,-0.46875 z m 0,0"
     id="path10"
     inkscape:connector-curvature="0"
     style="stroke-width:0.046875" />
</svg>
