<?xml version="1.0" encoding="utf-8"?>
<!-- Generator: Adobe Illustrator 24.0.0, SVG Export Plug-In . SVG Version: 6.00 Build 0)  -->
<svg version="1.1" id="Layer_1" xmlns="http://www.w3.org/2000/svg" xmlns:xlink="http://www.w3.org/1999/xlink" x="0px" y="0px"
	 viewBox="0 0 24 24" enable-background="new 0 0 24 24" xml:space="preserve">
<path fill="none" d="M0,0h24v24H0V0z"/>
<path d="M21.1,6.4l-2.51-1.26c-0.31-0.16-0.68-0.03-0.84,0.28c-0.16,0.31-0.03,0.69,0.28,0.84l0.95,0.48
	c-0.03,0.07-0.06,0.14-0.06,0.22c0,0.82,0.61,1.51,1.24,1.77v7.66c0,0.35-0.28,0.63-0.63,0.63s-0.63-0.28-0.63-0.63v-5.03
	c0-1.52-1.26-2.79-2.51-3.08V4.45c0-1.39-1.1-2.51-2.48-2.51H6.37c-1.39,0-2.54,1.12-2.54,2.51v14.07l-0.91,0.45
	c-0.21,0.11-0.35,0.32-0.35,0.56v1.89c0,0.35,0.31,0.64,0.66,0.64h13.83c0.35,0,0.6-0.29,0.6-0.64v-1.89c0-0.24-0.13-0.46-0.35-0.56
	l-0.91-0.45V9.59c0.63,0.26,1.26,0.95,1.26,1.77v5.03c0,1.04,0.85,1.89,1.89,1.89c1.04,0,1.89-0.85,1.89-1.89V6.96
	C21.43,6.72,21.31,6.51,21.1,6.4z M8.9,15.44l-3.01-3.01l1.21-1.21l1.8,1.79l4.46-4.45l1.21,1.21L8.9,15.44z"/>
</svg>
