<?xml version="1.0" encoding="UTF-8" standalone="no"?>
<svg
   xmlns:dc="http://purl.org/dc/elements/1.1/"
   xmlns:cc="http://creativecommons.org/ns#"
   xmlns:rdf="http://www.w3.org/1999/02/22-rdf-syntax-ns#"
   xmlns:svg="http://www.w3.org/2000/svg"
   xmlns="http://www.w3.org/2000/svg"
   xmlns:sodipodi="http://sodipodi.sourceforge.net/DTD/sodipodi-0.dtd"
   xmlns:inkscape="http://www.inkscape.org/namespaces/inkscape"
   width="24"
   height="24"
   viewBox="0 0 2.8125 2.8125"
   version="1.1"
   id="svg21"
   sodipodi:docname="parking_maintenance_ok.svg"
   inkscape:version="0.92.4 (5da689c313, 2019-01-14)">
  <metadata
     id="metadata25">
    <rdf:RDF>
      <cc:Work
         rdf:about="">
        <dc:format>image/svg+xml</dc:format>
        <dc:type
           rdf:resource="http://purl.org/dc/dcmitype/StillImage" />
        <dc:title>007 - Car Insurance</dc:title>
      </cc:Work>
    </rdf:RDF>
  </metadata>
  <sodipodi:namedview
     pagecolor="#ffffff"
     bordercolor="#666666"
     borderopacity="1"
     objecttolerance="10"
     gridtolerance="10"
     guidetolerance="10"
     inkscape:pageopacity="0"
     inkscape:pageshadow="2"
     inkscape:window-width="1920"
     inkscape:window-height="980"
     id="namedview23"
     showgrid="false"
     inkscape:zoom="10.429825"
     inkscape:cx="-10.251175"
     inkscape:cy="3.2516986"
     inkscape:window-x="0"
     inkscape:window-y="27"
     inkscape:window-maximized="1"
     inkscape:current-layer="svg21" />
  <!-- Generator: Sketch 51.3 (57544) - http://www.bohemiancoding.com/sketch -->
  <title
     id="title2">007 - Car Insurance</title>
  <desc
     id="desc4">Created with Sketch.</desc>
  <defs
     id="defs6" />
  <g
     id="Page-1"
     transform="matrix(0.046875,0,0,0.0468752,0,-1.2e-5)"
     style="fill:none;fill-rule:evenodd;stroke:none;stroke-width:1">
    <g
       id="007---Car-Insurance"
       style="fill:#000000;fill-rule:nonzero">
      <path
         d="m 36.608,26.523 7.812,5.561 c 0.347164,0.247178 0.812836,0.247178 1.16,0 l 7.812,-5.561 C 55.019408,25.370357 55.990582,23.50323 56,21.509 V 9.677 C 56.000591,9.278839 55.764921,8.9182642 55.4,8.759 l -10,-4.32 c -0.252749,-0.1089993 -0.539251,-0.1089993 -0.792,0 l -10,4.32 c -0.364921,0.1592642 -0.600591,0.519839 -0.6,0.918 v 11.832 c 0.0077,1.992735 0.97575,3.859503 2.6,5.014 z M 36,10.334 l 9,-3.887 9,3.887 v 11.175 c -0.0073,1.349721 -0.666204,2.61277 -1.769,3.391 L 45,30.042 37.769,24.894 C 36.667535,24.117336 36.008738,22.856722 36,21.509 Z"
         id="Shape"
         inkscape:connector-curvature="0" />
      <path
         d="m 42.4,23.8 c 0.432044,0.324231 1.043487,0.246749 1.381,-0.175 l 8,-10 c 0.345178,-0.431334 0.275334,-1.060822 -0.156,-1.406 -0.431334,-0.345178 -1.060822,-0.275334 -1.406,0.156 l -7.4,9.244 L 39.6,19.2 c -0.285812,-0.214359 -0.664273,-0.259956 -0.99282,-0.119615 -0.328547,0.140341 -0.557266,0.445299 -0.6,0.8 -0.04274,0.3547 0.107007,0.705256 0.39282,0.919615 z"
         id="path9"
         inkscape:connector-curvature="0" />
      <path
         d="m 2,53 h 1 v 4 c 0,1.656854 1.3431457,3 3,3 h 6 c 1.656854,0 3,-1.343146 3,-3 v -4 h 24 v 4 c 0,1.656854 1.343146,3 3,3 h 6 c 1.656854,0 3,-1.343146 3,-3 v -4 h 1 c 1.104569,0 2,-0.895431 2,-2 V 36 c 0.0037,-1.449262 -0.628263,-2.827264 -1.729,-3.77 l 3.44,-2.448 C 58.391976,27.878076 59.989191,24.797228 60,21.509 V 7.048 C 60.000591,6.649839 59.764921,6.2892641 59.4,6.13 l -14,-6.048 c -0.252749,-0.10899932 -0.539251,-0.10899932 -0.792,0 L 30.6,6.13 C 30.235079,6.2892641 29.999409,6.649839 30,7.048 V 11 H 14.87 c -2.12011,7.18e-4 -4.009275,1.338442 -4.714,3.338 L 4.266,31.074 C 1.8208052,31.433855 0.00682717,33.528477 0,36 v 15 c 0,1.104569 0.8954305,2 2,2 z m 11,4 c 0,0.552285 -0.447715,1 -1,1 H 6 C 5.4477152,58 5,57.552285 5,57 v -4 h 8 z M 9,51 H 7 v -2 h 2 z m 40,6 c 0,0.552285 -0.447715,1 -1,1 h -6 c -0.552285,0 -1,-0.447715 -1,-1 v -4 h 8 z m -2,-6 h -2 v -2 h 2 z M 32,7.705 45,2.089 58,7.705 v 13.8 c -0.0099,2.641538 -1.294347,5.115835 -3.449,6.644 L 45,34.952 35.449,28.152 C 33.294633,26.62404 32.010224,24.150184 32,21.509 Z M 47,37 c 0.552285,0 1,0.447715 1,1 v 2 c 0,0.552285 -0.447715,1 -1,1 h -6 c -0.552285,0 -1,-0.447715 -1,-1 0,-1.656854 1.343146,-3 3,-3 z M 30,17 v 2 h -7 v -2 z m 0,-2 h -2 v -2 h 2 z m -17.957,0 c 0.423608,-1.198146 1.556175,-1.999395 2.827,-2 H 26 v 2 h -3 c -1.10457,0 -2,0.895431 -2,2 v 2 c 0,1.104569 0.89543,2 2,2 h 7 v 0.509 c 0.01081,3.288228 1.608024,6.369076 4.289,8.273 L 36,31 H 6.412 Z M 2,36 c 0,-1.656854 1.3431458,-3 3,-3 h 33.81 l 3.022,2.152 C 39.589404,35.690768 38.006305,37.693602 38,40 c 0,1.656854 1.343146,3 3,3 h 6 c 1.656854,0 3,-1.343146 3,-3 v -2 c -0.0033,-1.235262 -0.76335,-2.34225 -1.915,-2.789 l 2.476,-1.763 C 51.457837,33.984704 52.004873,34.954848 52,36 l 3.2e-5,15 H 49 v -2 c 0,-1.104569 -0.895431,-2 -2,-2 h -2 c -1.104569,0 -2,0.895431 -2,2 v 2 H 11 V 49 C 11,47.895431 10.10457,47 9,47 H 7 c -1.1045695,0 -2,0.895431 -2,2 v 2 H 2 Z"
         id="path11"
         inkscape:connector-curvature="0" />
      <path
         d="m 18,15 h -1.711 c -1.271261,0.0014 -2.404274,0.802142 -2.83,2 L 9.705,27.668 c -0.1833585,0.521081 0.090419,1.092141 0.6115,1.2755 0.521081,0.183358 1.092142,-0.09042 1.2755,-0.6115 L 15.346,17.668 C 15.486834,17.267861 15.864801,17.000118 16.289,17 H 18 c 0.552285,0 1,-0.447715 1,-1 0,-0.552285 -0.447715,-1 -1,-1 z"
         id="path13"
         inkscape:connector-curvature="0" />
      <path
         d="m 7,43 h 6 c 1.656854,0 3,-1.343146 3,-3 -0.0033,-2.760053 -2.239947,-4.996694 -5,-5 H 7 c -1.6568543,0 -3,1.343146 -3,3 v 2 c 0,1.656854 1.3431457,3 3,3 z M 6,38 c 0,-0.552285 0.4477152,-1 1,-1 h 4 c 1.656854,0 3,1.343146 3,3 0,0.552285 -0.447715,1 -1,1 H 7 C 6.4477152,41 6,40.552285 6,40 Z"
         id="path15"
         inkscape:connector-curvature="0" />
      <path
         d="m 20,49 h 14 c 1.104569,0 2,-0.895431 2,-2 v -4 c 0,-1.104569 -0.895431,-2 -2,-2 H 20 c -1.10457,0 -2,0.895431 -2,2 v 4 c 0,1.104569 0.89543,2 2,2 z m 0,-6 h 14 v 4 H 20 Z"
         id="path17"
         inkscape:connector-curvature="0" />
    </g>
  </g>
</svg>
