{% for employee, data in days_not_workeds.items() %}\
${company_ruc};\
${branch_office_code};\
${current_year};\
${current_month};\
${movement_type};\
${employee};\
${data['start_date']};\
${data['total_days']}${'\r'}
{% end %}