{% for employee, data in notice_input.items() %}\
${company_ruc};\
${branch_office_code};\
${current_year};\
${current_month};\
${movement_type};\
${employee};\
${data['start_date']};\
${data['register_date_iess']};\
${data['working_day']};\
${data['social_code']};\
${data['employer_code']};\
${data['working_relationship']};\
${data['job_position']};\
${data['activity_code']};\
${data['salary']};\
${data['origin_payment']}${'\r'}
{% end %}